STRUCTURE	TEMP_STRUCTURE	FOOTPRINT_TEMPLATE	NO_LOT_REQUIREMENT	LOT_REDUCTION	EJECT_RANGE	CIVIC	CITY_RANK	CITY_COST	SHUTTLEPORT	CLONE_FACILITY	GARAGE	CAN_RECLAIM	MAINT_RATE	DECAY_RATE	CONDITION	REDEED_COST	HAS_SIGN	POWER_RATE	SKILLMOD	SKILLMODVALUE	SKILLMOD_MESSAGE	VERSION	OBJECT	X	Y	Z	CELL	HEADING	COMMENTS
s	s	s	i	I	f[0]	I	I	I	I	I	I	b[1]	i	i	i	i[0]	I[0]	f[0]	s	i	s	i	s	f	f	f	s	f	c
object/building/player/player_house_tcg_relaxation_pool.iff	object/building/player/construction/construction_player_tcg_relaxation_pool.iff			0	32								9	4	5760	1700	1					4							
																							object/tangible/terminal/terminal_player_structure_nosnap.iff	7.25	4	0	entry	-90	
object/building/player/player_house_jedi_meditation_room.iff	object/building/player/construction/construction_player_jedi_meditation_room.iff			0	32								4	3	4320	800	1					4							
																							object/tangible/terminal/terminal_player_structure_nosnap.iff	8.2	4	-1.1	entry	-91	
object/building/player/player_house_sith_meditation_room.iff	object/building/player/construction/construction_player_sith_meditation_room.iff			0	32								4	3	4320	800	1					4							
																							object/tangible/terminal/terminal_player_structure_nosnap.iff	4	4	1.85	entry	180	
object/building/player/player_house_corellia_small_style_01.iff	object/building/player/construction/construction_player_house_tatooine_small_style_01.iff			0									4	3	4320	800	1					4							
																							object/tangible/terminal/terminal_player_structure.iff	-5	0.74	-2.76	entry	-90	
object/building/player/player_house_corellia_small_style_01_floorplan_02.iff	object/building/player/construction/construction_player_house_tatooine_small_style_01.iff			0									4	3	4320	800	1					4							
																							object/tangible/terminal/terminal_player_structure.iff	-5	0.74	-1.81	entry	-90	
object/building/player/player_house_corellia_small_style_02.iff	object/building/player/construction/construction_player_house_tatooine_small_style_01.iff			0									4	3	4320	800	1					4							
																							object/tangible/terminal/terminal_player_structure.iff	-6.5	0.63	3.77	entry	90	
object/building/player/player_house_corellia_small_style_02_floorplan_02.iff	object/building/player/construction/construction_player_house_tatooine_small_style_01.iff			0									4	3	4320	800	1					4							
																							object/tangible/terminal/terminal_player_structure.iff	-6.7	0.62	3.55	entry	90	
object/building/player/player_house_corellia_medium_style_01.iff	object/building/player/construction/construction_player_house_tatooine_medium_style_01.iff			-1									9	4	5760	1700	1					4							
																							object/tangible/terminal/terminal_player_structure.iff	3	0.62	6.4	public	180	
object/building/player/player_house_corellia_medium_style_02.iff	object/building/player/construction/construction_player_house_tatooine_medium_style_01.iff			-1									9	4	5760	1700	1					4							
																							object/tangible/terminal/terminal_player_structure.iff	-7.15	0.88	5.59	middleroom	180	
object/building/player/player_house_corellia_large_style_01.iff	object/building/player/construction/construction_player_house_tatooine_large_style_01.iff			1									13	5	7200	2500	1					4							
																							object/tangible/terminal/terminal_player_structure.iff	3.17	4.59	-4.4	mainhall1	0	
object/building/player/player_house_corellia_large_style_02.iff	object/building/player/construction/construction_player_house_tatooine_large_style_01.iff			1									13	5	7200	2500	1					4							
																							object/tangible/terminal/terminal_player_structure.iff	-6.22	4.71	-3.85	hallway	180	
object/building/player/player_house_generic_small_style_01.iff	object/building/player/construction/construction_player_house_tatooine_small_style_01.iff			0									4	3	4320	800	1					4							
																							object/tangible/terminal/terminal_player_structure.iff	-5	0.74	-2.76	entry	-90	
object/building/player/player_house_generic_small_style_01_floorplan_02.iff	object/building/player/construction/construction_player_house_tatooine_small_style_01.iff			0									4	3	4320	800	1					4							
																							object/tangible/terminal/terminal_player_structure.iff	-5	0.74	-1.81	entry	-90	
object/building/player/player_house_generic_small_style_02.iff	object/building/player/construction/construction_player_house_tatooine_small_style_01.iff			0									4	3	4320	800	1					4							
																							object/tangible/terminal/terminal_player_structure.iff	-6.5	0.63	3.77	entry	90	
object/building/player/player_house_generic_small_style_02_floorplan_02.iff	object/building/player/construction/construction_player_house_tatooine_small_style_01.iff			0									4	3	4320	800	1					4							
																							object/tangible/terminal/terminal_player_structure.iff	-6.69	0.62	3.55	entry	90	
object/building/player/player_house_generic_medium_style_01.iff	object/building/player/construction/construction_player_house_tatooine_medium_style_01.iff			-1									9	4	5760	1700	1					4							
																							object/tangible/terminal/terminal_player_structure.iff	3	0.62	6.4	public	180	
object/building/player/player_house_generic_medium_style_02.iff	object/building/player/construction/construction_player_house_tatooine_medium_style_01.iff			-1									9	4	5760	1700	1					4							
																							object/tangible/terminal/terminal_player_structure.iff	-7.15	0.88	5.59	middleroom	180	
object/building/player/player_house_generic_large_style_01.iff	object/building/player/construction/construction_player_house_tatooine_large_style_01.iff			1									13	5	7200	2500	1					4							
																							object/tangible/terminal/terminal_player_structure.iff	3.17	4.59	-4.4	mainhall1	0	
object/building/player/player_house_generic_large_style_02.iff	object/building/player/construction/construction_player_house_tatooine_large_style_01.iff			1									13	5	7200	2500	1					4							
																							object/tangible/terminal/terminal_player_structure.iff	-6.22	4.71	-3.85	hallway	180	
object/building/player/player_house_naboo_small_style_01.iff	object/building/player/construction/construction_player_house_tatooine_small_style_01.iff			-1									4	3	4320	800	1					4							
																							object/tangible/terminal/terminal_player_structure.iff	3.1	0.7	5.31	foyer	-90	
object/building/player/player_house_naboo_small_style_02.iff	object/building/player/construction/construction_player_house_tatooine_small_style_01.iff			-1									4	3	4320	800	1					4							
																							object/tangible/terminal/terminal_player_structure.iff	0.6	0.7	6.15	hall	180	
object/building/player/player_house_naboo_medium_style_01.iff	object/building/player/construction/construction_player_house_tatooine_medium_style_01.iff			-1									9	4	5760	1700	1					4							
																							object/tangible/terminal/terminal_player_structure.iff	9.89	1.1	-10.75	foyerdown	0	
object/building/player/player_house_naboo_medium_style_02.iff	object/building/player/construction/construction_player_house_tatooine_medium_style_01.iff			-1									9	4	5760	1700	1					4							
																							object/tangible/terminal/terminal_player_structure.iff	5.62	1.06	7.98	foyer	180	
object/building/player/player_house_naboo_large_style_01.iff	object/building/player/construction/construction_player_house_tatooine_large_style_01.iff			1									13	5	7200	2500	1					4							
																							object/tangible/terminal/terminal_player_structure.iff	14.85	4.7	-1.76	hall1	-90	
object/building/player/player_house_tatooine_small_style_01.iff	object/building/player/construction/construction_player_house_tatooine_small_style_01.iff			0									4	3	4320	800	1					4							
																							object/tangible/terminal/terminal_player_structure.iff	3.79	1.06	6.02	foyer	180	
object/building/player/player_house_tatooine_small_style_02.iff	object/building/player/construction/construction_player_house_tatooine_small_style_01.iff			0									4	3	4320	800	1					4							
																							object/tangible/terminal/terminal_player_structure.iff	3.79	1.06	6.02	foyer	180	
object/building/player/player_house_tatooine_medium_style_01.iff	object/building/player/construction/construction_player_house_tatooine_medium_style_01.iff			-1									9	4	5760	1700	1					4							
																							object/tangible/terminal/terminal_player_structure.iff	6.94	1.06	7.98	foyer	180	
object/building/player/player_house_tatooine_large_style_01.iff	object/building/player/construction/construction_player_house_tatooine_large_style_01.iff			1									13	5	7200	2500	1					4							
																							object/tangible/terminal/terminal_player_structure.iff	8.16	1.06	11.24	public	180	
object/installation/manufacture/clothing_factory.iff	object/installation/base/construction_installation_base.iff			-1									13	6	1000	2500		50				4							
object/installation/manufacture/food_factory.iff	object/installation/base/construction_installation_base.iff			-1									13	6	1000	2500		50				4							
object/installation/manufacture/weapon_factory.iff	object/installation/base/construction_installation_base.iff			-1									13	6	1000	2500		50				4							
object/installation/manufacture/structure_factory.iff	object/installation/base/construction_installation_base.iff			1									13	6	1000	2500		50				4							
object/installation/generators/power_generator_fusion_style_1.iff	object/installation/base/construction_installation_base.iff			-1									15	6	1000	3000		0				4							
object/installation/generators/power_generator_photo_bio_style_1.iff	object/installation/base/construction_installation_base.iff			-1									15	6	1000	3000		0				4							
object/installation/generators/power_generator_solar_style_1.iff	object/installation/base/construction_installation_base.iff			-1									15	6	1000	3000		0				4							
object/installation/generators/power_generator_geothermal_style_1.iff	object/installation/base/construction_installation_base.iff			-1									15	6	1000	3000		0				4							
object/installation/generators/power_generator_wind_style_1.iff	object/installation/base/construction_installation_base.iff			-1									15	6	1000	3000		0				4							
object/installation/mining_gas/mining_gas_harvester_style_1.iff	object/installation/base/construction_installation_base.iff			-1									8	6	1000	1500		25				4							
object/installation/mining_gas/mining_gas_harvester_style_2.iff	object/installation/base/construction_installation_base.iff			-1									15	6	1000	3000		50				4							
object/installation/mining_gas/mining_gas_harvester_style_3.iff	object/installation/base/construction_installation_base.iff			-1									23	6	1000	4500		75				4							
object/installation/mining_gas/mining_gas_harvester_style_4.iff	object/installation/base/construction_installation_base.iff			-3									63	6	1000	12375		206				4							
object/installation/mining_liquid/mining_liquid_harvester_style_1.iff	object/installation/base/construction_installation_base.iff			-1									8	6	1000	1500		25				4							
object/installation/mining_liquid/mining_liquid_harvester_style_2.iff	object/installation/base/construction_installation_base.iff			-1									15	6	1000	3000		50				4							
object/installation/mining_liquid/mining_liquid_harvester_style_3.iff	object/installation/base/construction_installation_base.iff			-1									23	6	1000	4500		75				4							
object/installation/mining_liquid/mining_liquid_harvester_style_4.iff	object/installation/base/construction_installation_base.iff			-3									63	6	1000	12375		206				4							
object/installation/mining_liquid/mining_liquid_moisture_harvester.iff	object/installation/base/construction_installation_base.iff			-1									8	6	1000	1500		25				4							
object/installation/mining_liquid/mining_liquid_moisture_harvester_medium.iff	object/installation/base/construction_installation_base.iff			-1									15	6	1000	3000		50				4							
object/installation/mining_liquid/mining_liquid_moisture_harvester_heavy.iff	object/installation/base/construction_installation_base.iff			-1									23	6	1000	4500		75				4							
object/installation/mining_liquid/mining_liquid_moisture_harvester_elite.iff	object/installation/base/construction_installation_base.iff			-3									63	6	1000	12375		206				4							
object/installation/mining_ore/mining_ore_harvester_style_1.iff	object/installation/base/construction_installation_base.iff			-1									8	6	1000	1500		25		20		4							
object/installation/mining_ore/mining_ore_harvester_style_2.iff	object/installation/mining_ore/construction/construction_mining_ore_harvester_style_2.iff			-1									15	6	1000	3000		50				4							
object/installation/mining_ore/mining_ore_harvester_heavy.iff	object/installation/mining_ore/construction/construction_mining_ore_harvester_style_heavy.iff			-1									23	6	1000	4500		75		10		4							
object/installation/mining_ore/mining_ore_harvester_elite.iff	object/installation/mining_ore/construction/construction_mining_ore_harvester_style_heavy.iff			-3									63	6	1000	12375		206				4							
object/installation/mining_organic/mining_organic_creature_farm.iff	object/installation/base/construction_installation_base.iff			1									13	6	1000	2500		50				4							
object/installation/mining_organic/mining_organic_flora_farm.iff	object/installation/base/construction_installation_base.iff			-1									8	6	1000	1500		25				4							
object/installation/mining_organic/mining_organic_flora_farm_medium.iff	object/installation/base/construction_installation_base.iff			-1									15	6	1000	3000		50				4							
object/installation/mining_organic/mining_organic_flora_farm_heavy.iff	object/installation/base/construction_installation_base.iff			-1									23	6	1000	4500		75				4							
object/installation/mining_organic/mining_organic_flora_farm_elite.iff	object/installation/base/construction_installation_base.iff			-3									63	6	1000	12375		206				4							
object/building/player/player_guildhall_corellia_style_01.iff	object/building/player/construction/construction_player_house_tatooine_large_style_01.iff			4									25	5	7200	5000	1					4							
																							object/tangible/terminal/terminal_player_structure.iff	17.88	2.25	10.45	closeta	90	
object/building/player/player_guildhall_generic_style_01.iff	object/building/player/construction/construction_player_house_tatooine_large_style_01.iff			4									25	5	7200	5000	1					4							
																							object/tangible/terminal/terminal_player_structure.iff	17.88	2.25	10.45	closeta	90	
object/building/player/player_guildhall_naboo_style_01.iff	object/building/player/construction/construction_player_house_tatooine_large_style_01.iff			4									25	5	7200	5000	1					4							
																							object/tangible/terminal/terminal_player_structure.iff	17.88	2.25	10.45	closeta	90	
object/building/player/player_guildhall_tatooine_style_01.iff	object/building/player/construction/construction_player_house_tatooine_large_style_01.iff			4									25	5	7200	5000	1					4							
																							object/tangible/terminal/terminal_player_structure.iff	17.88	2.25	10.45	closeta	90	
object/building/player/player_guildhall_tatooine_style_02.iff	object/building/player/construction/construction_player_house_tatooine_large_style_01.iff			2									25	5	7200	5000	1					4							
																							object/tangible/terminal/terminal_player_structure.iff	9.13	1	6.36	lobby	90	
object/installation/turret/turret_block_large.iff	object/installation/base/construction_installation_base.iff			0								0	15	6		3000													
object/installation/turret/turret_block_med.iff	object/installation/base/construction_installation_base.iff			0								0	10	6		2000													
object/installation/turret/turret_block_sm.iff	object/installation/base/construction_installation_base.iff			0								0	5	6		1000													
																													
object/installation/faction_perk/covert_detector/detector_32m.iff	object/installation/base/construction_installation_base.iff		1	0								0	8	6	10000	1500						4							
object/installation/faction_perk/turret/block_lg.iff	object/installation/base/construction_installation_base.iff		1	0								0	15	6	300000	3000						4							
object/installation/faction_perk/turret/block_med.iff	object/installation/base/construction_installation_base.iff		1	0								0	10	6	200000	2000						4							
object/installation/faction_perk/turret/block_sm.iff	object/installation/base/construction_installation_base.iff		1	0								0	5	6	75000	1000						4							
object/installation/faction_perk/turret/dish_sm.iff	object/installation/base/construction_installation_base.iff		1	0								0	5	6	75000	1000						4							
object/installation/faction_perk/turret/dish_lg.iff	object/installation/base/construction_installation_base.iff		1	0								0	15	6	300000	3000						4							
object/installation/faction_perk/turret/tower_lg.iff	object/installation/base/construction_installation_base.iff		1	0								0	15	6	300000	3000						4							
object/installation/faction_perk/turret/tower_med.iff	object/installation/base/construction_installation_base.iff		1	0								0	10	6	200000	2000						4							
object/installation/faction_perk/turret/tower_sm.iff	object/installation/base/construction_installation_base.iff		1	0								0	5	6	75000	1000						4							
			1																										
object/installation/faction_perk/minefield/field_1x1.iff	object/installation/base/construction_installation_base.iff			-1								0	0	0	1000							4							
																													
object/building/faction_perk/hq/hq_s01_rebel.iff	object/building/player/construction/construction_player_house_tatooine_large_style_01.iff	object/building/faction_perk/hq/hq_s01_fp.iff		4	8							0	0	200	100000		1					4							
																							object/tangible/terminal/terminal_hq_rebel.iff	0	0	-6	mainhall	0	
object/building/faction_perk/hq/hq_s01_imp.iff	object/building/player/construction/construction_player_house_tatooine_large_style_01.iff	object/building/faction_perk/hq/hq_s01_fp.iff		4	8							0	0	200	100000		1					4							
																							object/tangible/terminal/terminal_hq_imperial.iff	0	0	-6	mainhall	0	
object/building/faction_perk/hq/hq_s02_rebel.iff	object/building/player/construction/construction_player_house_tatooine_large_style_01.iff	object/building/faction_perk/hq/hq_s02_fp.iff		4	8							0	0	200	100000		1					4							
																							object/tangible/terminal/terminal_hq_rebel.iff	0	0.25	1.86	hall1	0	
object/building/faction_perk/hq/hq_s02_imp.iff	object/building/player/construction/construction_player_house_tatooine_large_style_01.iff	object/building/faction_perk/hq/hq_s02_fp.iff		4	8							0	0	200	100000		1					4							
																							object/tangible/terminal/terminal_hq_imperial.iff	0	0.25	1.86	hall1	0	
object/building/faction_perk/hq/hq_s03_rebel.iff	object/building/player/construction/construction_player_house_tatooine_large_style_01.iff	object/building/faction_perk/hq/hq_s03_fp.iff		4	8							0	0	200	100000		1					4							
																							object/tangible/terminal/terminal_hq_rebel.iff	0	0.25	1.86	hall1	0	
object/building/faction_perk/hq/hq_s03_imp.iff	object/building/player/construction/construction_player_house_tatooine_large_style_01.iff	object/building/faction_perk/hq/hq_s03_fp.iff		4	8							0	0	200	100000		1					4							
																							object/tangible/terminal/terminal_hq_imperial.iff	0	0.25	1.86	hall1	0	
object/building/faction_perk/hq/hq_s04_rebel.iff	object/building/player/construction/construction_player_house_tatooine_large_style_01.iff	object/building/faction_perk/hq/hq_s04_fp.iff		4	8							0	0	200	100000		1					4							
																							object/tangible/terminal/terminal_hq_rebel.iff	0	0.25	1.86	hall1	0	
object/building/faction_perk/hq/hq_s04_imp.iff	object/building/player/construction/construction_player_house_tatooine_large_style_01.iff	object/building/faction_perk/hq/hq_s04_fp.iff		4	8							0	0	200	100000		1					4							
																							object/tangible/terminal/terminal_hq_imperial.iff	0	0.25	1.86	hall1	0	
object/building/faction_perk/hq/hq_s05_rebel.iff	object/building/player/construction/construction_player_house_tatooine_large_style_01.iff	object/building/faction_perk/hq/hq_s05_fp.iff		7	32							0	0	200	100000		1					4							
																							object/tangible/terminal/terminal_hq_rebel.iff	0	1	12.5	mainhall	180	
object/building/faction_perk/hq/hq_s05_imp.iff	object/building/player/construction/construction_player_house_tatooine_large_style_01.iff	object/building/faction_perk/hq/hq_s05_fp.iff		7	32							0	0	200	100000		1					4							
																							object/tangible/terminal/terminal_hq_imperial.iff	0	1	12.5	mainhall	180	
object/building/player/player_merchant_tent_style_01.iff	object/building/player/construction/construction_player_house_tatooine_small_style_01.iff			0									3	3	4320	600	1		private_place_merchant_tent	100	place_merchant_tent	4							
																							object/tangible/terminal/terminal_player_structure.iff	-0.15	0.27	-2.76	r1	0	
object/building/player/player_merchant_tent_style_02.iff	object/building/player/construction/construction_player_house_tatooine_small_style_01.iff			0									3	3	4320	600	1		private_place_merchant_tent	100	place_merchant_tent	4							
																							object/tangible/terminal/terminal_player_structure.iff	-0.15	0.27	-2.76	r1	0	
object/building/player/player_merchant_tent_style_03.iff	object/building/player/construction/construction_player_house_tatooine_small_style_01.iff			0									3	3	4320	600	1		private_place_merchant_tent	100	place_merchant_tent	4							
																							object/tangible/terminal/terminal_player_structure.iff	-0.15	0.27	-2.76	r1	0	
object/building/player/city/cityhall_tatooine.iff	object/building/player/construction/construction_player_house_tatooine_large_style_01.iff		1			1		1				0	0	0	1000		1		private_place_cityhall	100	place_cityhall	4							
																							object/tangible/terminal/terminal_player_structure.iff	-16.78	2	7.9	mayoroffice	180	
																							object/tangible/terminal/terminal_city_vote.iff	0.25	2	-9.65	grandhall	0	
																							object/tangible/terminal/terminal_city.iff	17.07	2	-8.7	library	0	
object/building/player/city/cityhall_naboo.iff	object/building/player/construction/construction_player_house_tatooine_large_style_01.iff		1			1		1				0	0	0	1000		1		private_place_cityhall	100	place_cityhall	4							
																							object/tangible/terminal/terminal_player_structure.iff	-16.78	2	7.9	mayoroffice	180	
																							object/tangible/terminal/terminal_city_vote.iff	0.25	2	-9.65	grandhall	0	
																							object/tangible/terminal/terminal_city.iff	17.07	2	-8.7	library	0	
object/building/player/city/cityhall_corellia.iff	object/building/player/construction/construction_player_house_tatooine_large_style_01.iff		1			1		1				0	0	0	1000		1		private_place_cityhall	100	place_cityhall	4							
																							object/tangible/terminal/terminal_player_structure.iff	-16.78	2	7.9	mayoroffice	180	
																							object/tangible/terminal/terminal_city_vote.iff	0.25	2	-9.65	grandhall	0	
																							object/tangible/terminal/terminal_city.iff	17.07	2	-8.7	library	0	
object/building/player/city/bank_tatooine.iff	object/building/player/construction/construction_player_house_tatooine_large_style_01.iff		1			1	2	4					0	0	1000		1		private_place_bank	100	place_bank	4							
																							object/tangible/terminal/terminal_bank.iff	-1	-0.25	0	WORLD_DELTA	90	
																							object/tangible/terminal/terminal_bank.iff	1	-0.25	0	WORLD_DELTA	-90	
																							object/tangible/terminal/terminal_bank.iff	0	-0.25	-1	WORLD_DELTA	0	
																							object/tangible/terminal/terminal_player_structure_nosnap.iff	0	-0.25	1	WORLD_DELTA	180	
object/building/player/city/bank_naboo.iff	object/building/player/construction/construction_player_house_tatooine_large_style_01.iff		1			1	2	4					0	0	1000		1		private_place_bank	100	place_bank	4							
																							object/tangible/terminal/terminal_bank.iff	-1	-0.25	0	WORLD_DELTA	90	
																							object/tangible/terminal/terminal_bank.iff	1	-0.25	0	WORLD_DELTA	-90	
																							object/tangible/terminal/terminal_bank.iff	0	-0.25	-1	WORLD_DELTA	0	
																							object/tangible/terminal/terminal_player_structure_nosnap.iff	0	-0.25	1	WORLD_DELTA	180	
object/building/player/city/bank_corellia.iff	object/building/player/construction/construction_player_house_tatooine_large_style_01.iff		1			1	2	4					0	0	1000		1		private_place_bank	100	place_bank	4							
																							object/tangible/terminal/terminal_bank.iff	-1	-0.25	0	WORLD_DELTA	90	
																							object/tangible/terminal/terminal_bank.iff	1	-0.25	0	WORLD_DELTA	-90	
																							object/tangible/terminal/terminal_bank.iff	0	-0.25	-1	WORLD_DELTA	0	
																							object/tangible/terminal/terminal_player_structure_nosnap.iff	0	-0.25	1	WORLD_DELTA	180	
object/building/player/city/barn_no_planet_restriction.iff	object/building/player/construction/construction_player_barn.iff			0	32								4	3	4320	800	1					4							
																							object/tangible/terminal/terminal_player_structure_nosnap.iff	3	1.8	3	entry	180	
object/building/player/city/cantina_tatooine.iff	object/building/player/construction/construction_player_house_tatooine_large_style_01.iff			1			2						13	5	7200	2500	1		private_place_cantina	100	place_cantina	4							
																							object/tangible/terminal/terminal_player_structure.iff	-4.1	2	6.19	cantina	157	
object/building/player/city/cantina_naboo.iff	object/building/player/construction/construction_player_house_tatooine_large_style_01.iff			1			2						13	5	7200	2500	1		private_place_cantina	100	place_cantina	4							
																							object/tangible/terminal/terminal_player_structure.iff	-4.1	2	6.19	cantina	157	
object/building/player/city/cantina_corellia.iff	object/building/player/construction/construction_player_house_tatooine_large_style_01.iff			1			2						13	5	7200	2500	1		private_place_cantina	100	place_cantina	4							
																							object/tangible/terminal/terminal_player_structure.iff	-4.1	2	6.19	cantina	157	
object/building/player/city/cloning_tatooine.iff	object/building/player/construction/construction_player_house_tatooine_large_style_01.iff		1	-5		1	3	3		1			0	0	1000		1		private_place_cloning	100	place_cloning	4							
																							object/tangible/terminal/terminal_player_structure.iff	-13.5	1	-6.4	cloninglab	90	
																							object/tangible/terminal/terminal_cloning.iff	-14	1	3.1	cloninglab	90	
																							object/tangible/terminal/terminal_insurance.iff	6.3	1	-6.69	cloninglab	-90	
object/building/player/city/cloning_corellia.iff	object/building/player/construction/construction_player_house_tatooine_large_style_01.iff		1			1	3	3		1			0	0	1000		1		private_place_cloning	100	place_cloning	4							
																							object/tangible/terminal/terminal_player_structure.iff	-13.5	1	-6.4	cloninglab	90	
																							object/tangible/terminal/terminal_cloning.iff	-14	1	3.1	cloninglab	90	
																							object/tangible/terminal/terminal_insurance.iff	6.3	1	-6.69	cloninglab	-90	
object/building/player/city/cloning_naboo.iff	object/building/player/construction/construction_player_house_tatooine_large_style_01.iff		1			1	3	3		1			0	0	1000		1		private_place_cloning	100	place_cloning	4							
																							object/tangible/terminal/terminal_player_structure.iff	-13.5	1	-6.4	cloninglab	90	
																							object/tangible/terminal/terminal_cloning.iff	-14	1	3.1	cloninglab	90	
																							object/tangible/terminal/terminal_insurance.iff	6.3	1	-6.69	cloninglab	-90	
object/building/player/city/diner_no_planet_restriction.iff	object/building/player/construction/construction_player_diner.iff			1	32								4	3	4320	800	1					4							
																							object/tangible/terminal/terminal_player_structure_nosnap.iff	8.8	1.1	1.73	entry	-91	
object/building/player/city/hospital_tatooine.iff	object/building/player/construction/construction_player_house_tatooine_large_style_01.iff			0			3						13	5	7200	2500	1		private_place_hospital	100	place_hospital	4							
																							object/tangible/terminal/terminal_player_structure.iff	7.48	2	1.5	mainroom	-90	
object/building/player/city/hospital_corellia.iff	object/building/player/construction/construction_player_house_tatooine_large_style_01.iff			0			3						13	5	7200	2500	1		private_place_hospital	100	place_hospital	4							
																							object/tangible/terminal/terminal_player_structure.iff	7.48	2	1.5	mainroom	-90	
object/building/player/city/hospital_naboo.iff	object/building/player/construction/construction_player_house_tatooine_large_style_01.iff			0			3						13	5	7200	2500	1		private_place_hospital	100	place_hospital	4							
																							object/tangible/terminal/terminal_player_structure.iff	7.48	2	1.5	mainroom	-90	
object/building/player/city/theater_tatooine.iff	object/building/player/construction/construction_player_house_tatooine_large_style_01.iff			0			4						13	5	7200	2500	1		private_place_theater	100	place_theater	4							
																							object/tangible/terminal/terminal_player_structure.iff	-7	2	-14.2	backstage	90	
object/building/player/city/theater_naboo.iff	object/building/player/construction/construction_player_house_tatooine_large_style_01.iff			0			4						13	5	7200	2500	1		private_place_theater	100	place_theater	4							
																							object/tangible/terminal/terminal_player_structure.iff	-7	2	-14.2	backstage	90	
object/building/player/city/theater_corellia.iff	object/building/player/construction/construction_player_house_tatooine_large_style_01.iff			0			4						13	5	7200	2500	1		private_place_theater	100	place_theater	4							
																							object/tangible/terminal/terminal_player_structure.iff	-7	2	-14.2	backstage	90	
object/building/player/city/shuttleport_tatooine.iff	object/building/player/construction/construction_player_house_tatooine_large_style_01.iff		1			1	4	2	1				0	0	1000		1		private_place_shuttleport	100	place_shuttleport	4							
																							object/tangible/terminal/terminal_player_structure_nosnap.iff	8.4	-1	-14.5	WORLD_DELTA	90	
object/building/player/city/shuttleport_naboo.iff	object/building/player/construction/construction_player_house_tatooine_large_style_01.iff		1			1	4	2	1				0	0	1000		1		private_place_shuttleport	100	place_shuttleport	4							
																							object/tangible/terminal/terminal_player_structure_nosnap.iff	8.4	-1	-14.5	WORLD_DELTA	90	
object/building/player/city/shuttleport_corellia.iff	object/building/player/construction/construction_player_house_tatooine_large_style_01.iff		1			1	4	2	1				0	0	1000		1		private_place_shuttleport	100	place_shuttleport	4							
																							object/tangible/terminal/terminal_player_structure_nosnap.iff	8.4	-1	-14.5	WORLD_DELTA	90	
object/building/player/city/garden_corellia_lrg_01.iff	object/building/player/construction/construction_player_house_tatooine_small_style_01.iff		1			1	3	6					0	0	1000		1		private_place_large_garden	100	place_large_garden	4							
																							object/tangible/terminal/terminal_player_structure_nosnap_mini.iff	12	-1	-12	WORLD_DELTA	0	
object/building/player/city/garden_corellia_lrg_02.iff	object/building/player/construction/construction_player_house_tatooine_small_style_01.iff		1			1	3	6					0	0	1000		1		private_place_large_garden	100	place_large_garden	4							
																							object/tangible/terminal/terminal_player_structure_nosnap_mini.iff	12	-1	-12	WORLD_DELTA	0	
object/building/player/city/garden_corellia_lrg_03.iff	object/building/player/construction/construction_player_house_tatooine_small_style_01.iff		1			1	3	6					0	0	1000		1		private_place_large_garden	100	place_large_garden	4							
																							object/tangible/terminal/terminal_player_structure_nosnap_mini.iff	12	-1	-12	WORLD_DELTA	0	
object/building/player/city/garden_corellia_lrg_04.iff	object/building/player/construction/construction_player_house_tatooine_small_style_01.iff		1			1	3	6					0	0	1000		1		private_place_large_garden	100	place_large_garden	4							
																							object/tangible/terminal/terminal_player_structure_nosnap_mini.iff	12	-1	-12	WORLD_DELTA	0	
object/building/player/city/garden_corellia_lrg_05.iff	object/building/player/construction/construction_player_house_tatooine_small_style_01.iff		1			1	3	6					0	0	1000		1		private_place_large_garden	100	place_large_garden	4							
																							object/tangible/terminal/terminal_player_structure_nosnap_mini.iff	12	-1	-12	WORLD_DELTA	0	
object/building/player/city/garden_corellia_med_01.iff	object/building/player/construction/construction_player_house_tatooine_small_style_01.iff		1			1	2	3					0	0	1000		1		private_place_medium_garden	100	place_medium_garden	4							
																							object/tangible/terminal/terminal_player_structure_nosnap_mini.iff	8	-1	-8	WORLD_DELTA	0	
object/building/player/city/garden_corellia_med_02.iff	object/building/player/construction/construction_player_house_tatooine_small_style_01.iff		1			1	2	3					0	0	1000		1		private_place_medium_garden	100	place_medium_garden	4							
																							object/tangible/terminal/terminal_player_structure_nosnap_mini.iff	8	-1	-8	WORLD_DELTA	0	
object/building/player/city/garden_corellia_med_03.iff	object/building/player/construction/construction_player_house_tatooine_small_style_01.iff		1			1	2	3					0	0	1000		1		private_place_medium_garden	100	place_medium_garden	4							
																							object/tangible/terminal/terminal_player_structure_nosnap_mini.iff	8	-1	-8	WORLD_DELTA	0	
object/building/player/city/garden_corellia_med_04.iff	object/building/player/construction/construction_player_house_tatooine_small_style_01.iff		1			1	2	3					0	0	1000		1		private_place_medium_garden	100	place_medium_garden	4							
																							object/tangible/terminal/terminal_player_structure_nosnap_mini.iff	8	-1	-8	WORLD_DELTA	0	
object/building/player/city/garden_corellia_med_05.iff	object/building/player/construction/construction_player_house_tatooine_small_style_01.iff		1			1	2	3					0	0	1000		1		private_place_medium_garden	100	place_medium_garden	4							
																							object/tangible/terminal/terminal_player_structure_nosnap_mini.iff	8	-1	-8	WORLD_DELTA	0	
object/building/player/city/garden_corellia_sml_01.iff	object/building/player/construction/construction_player_house_tatooine_small_style_01.iff		1			1	1	5					0	0	1000		1		private_place_small_garden	100	place_small_garden	4							
																							object/tangible/terminal/terminal_player_structure_nosnap_mini.iff	4.5	-1	-4.5	WORLD_DELTA	0	
object/building/player/city/garden_corellia_sml_02.iff	object/building/player/construction/construction_player_house_tatooine_small_style_01.iff		1			1	1	5					0	0	1000		1		private_place_small_garden	100	place_small_garden	4							
																							object/tangible/terminal/terminal_player_structure_nosnap_mini.iff	4.5	-1	-4.5	WORLD_DELTA	0	
object/building/player/city/garden_corellia_sml_03.iff	object/building/player/construction/construction_player_house_tatooine_small_style_01.iff		1			1	1	5					0	0	1000		1		private_place_small_garden	100	place_small_garden	4							
																							object/tangible/terminal/terminal_player_structure_nosnap_mini.iff	4.5	-1	-4.5	WORLD_DELTA	0	
object/building/player/city/garden_corellia_sml_04.iff	object/building/player/construction/construction_player_house_tatooine_small_style_01.iff		1			1	1	5					0	0	1000		1		private_place_small_garden	100	place_small_garden	4							
																							object/tangible/terminal/terminal_player_structure_nosnap_mini.iff	4.5	-1	-4.5	WORLD_DELTA	0	
object/building/player/city/garden_corellia_sml_05.iff	object/building/player/construction/construction_player_house_tatooine_small_style_01.iff		1			1	1	5					0	0	1000		1		private_place_small_garden	100	place_small_garden	4							
																							object/tangible/terminal/terminal_player_structure_nosnap_mini.iff	4.5	-1	-4.5	WORLD_DELTA	0	
object/building/player/city/garden_naboo_lrg_01.iff	object/building/player/construction/construction_player_house_tatooine_small_style_01.iff		1			1	3	6					0	0	1000		1		private_place_large_garden	100	place_large_garden	4							
																							object/tangible/terminal/terminal_player_structure_nosnap_mini.iff	12	-1	-12	WORLD_DELTA	0	
object/building/player/city/garden_naboo_lrg_02.iff	object/building/player/construction/construction_player_house_tatooine_small_style_01.iff		1			1	3	6					0	0	1000		1		private_place_large_garden	100	place_large_garden	4							
																							object/tangible/terminal/terminal_player_structure_nosnap_mini.iff	12	-1	-12	WORLD_DELTA	0	
object/building/player/city/garden_naboo_lrg_03.iff	object/building/player/construction/construction_player_house_tatooine_small_style_01.iff		1			1	3	6					0	0	1000		1		private_place_large_garden	100	place_large_garden	4							
																							object/tangible/terminal/terminal_player_structure_nosnap_mini.iff	12	-1	-12	WORLD_DELTA	0	
object/building/player/city/garden_naboo_lrg_04.iff	object/building/player/construction/construction_player_house_tatooine_small_style_01.iff		1			1	3	6					0	0	1000		1		private_place_large_garden	100	place_large_garden	4							
																							object/tangible/terminal/terminal_player_structure_nosnap_mini.iff	12	-1	-12	WORLD_DELTA	0	
object/building/player/city/garden_naboo_lrg_05.iff	object/building/player/construction/construction_player_house_tatooine_small_style_01.iff		1			1	3	6					0	0	1000		1		private_place_large_garden	100	place_large_garden	4							
																							object/tangible/terminal/terminal_player_structure_nosnap_mini.iff	12	-1	-12	WORLD_DELTA	0	
object/building/player/city/garden_naboo_med_01.iff	object/building/player/construction/construction_player_house_tatooine_small_style_01.iff		1			1	2	3					0	0	1000		1		private_place_medium_garden	100	place_medium_garden	4							
																							object/tangible/terminal/terminal_player_structure_nosnap_mini.iff	8	-1	-8	WORLD_DELTA	0	
object/building/player/city/garden_naboo_med_02.iff	object/building/player/construction/construction_player_house_tatooine_small_style_01.iff		1			1	2	3					0	0	1000		1		private_place_medium_garden	100	place_medium_garden	4							
																							object/tangible/terminal/terminal_player_structure_nosnap_mini.iff	8	-1	-8	WORLD_DELTA	0	
object/building/player/city/garden_naboo_med_03.iff	object/building/player/construction/construction_player_house_tatooine_small_style_01.iff		1			1	2	3					0	0	1000		1		private_place_medium_garden	100	place_medium_garden	4							
																							object/tangible/terminal/terminal_player_structure_nosnap_mini.iff	8	-1	-8	WORLD_DELTA	0	
object/building/player/city/garden_naboo_med_04.iff	object/building/player/construction/construction_player_house_tatooine_small_style_01.iff		1			1	2	3					0	0	1000		1		private_place_medium_garden	100	place_medium_garden	4							
																							object/tangible/terminal/terminal_player_structure_nosnap_mini.iff	8	-1	-8	WORLD_DELTA	0	
object/building/player/city/garden_naboo_med_05.iff	object/building/player/construction/construction_player_house_tatooine_small_style_01.iff		1			1	2	3					0	0	1000		1		private_place_medium_garden	100	place_medium_garden	4							
																							object/tangible/terminal/terminal_player_structure_nosnap_mini.iff	8	-1	-8	WORLD_DELTA	0	
object/building/player/city/garden_naboo_sml_01.iff	object/building/player/construction/construction_player_house_tatooine_small_style_01.iff		1			1	1	5					0	0	1000		1		private_place_small_garden	100	place_small_garden	4							
																							object/tangible/terminal/terminal_player_structure_nosnap_mini.iff	4.5	-1	-4.5	WORLD_DELTA	0	
object/building/player/city/garden_naboo_sml_02.iff	object/building/player/construction/construction_player_house_tatooine_small_style_01.iff		1			1	1	5					0	0	1000		1		private_place_small_garden	100	place_small_garden	4							
																							object/tangible/terminal/terminal_player_structure_nosnap_mini.iff	4.5	-1	-4.5	WORLD_DELTA	0	
object/building/player/city/garden_naboo_sml_03.iff	object/building/player/construction/construction_player_house_tatooine_small_style_01.iff		1			1	1	5					0	0	1000		1		private_place_small_garden	100	place_small_garden	4							
																							object/tangible/terminal/terminal_player_structure_nosnap_mini.iff	4.5	-1	-4.5	WORLD_DELTA	0	
object/building/player/city/garden_naboo_sml_04.iff	object/building/player/construction/construction_player_house_tatooine_small_style_01.iff		1			1	1	5					0	0	1000		1		private_place_small_garden	100	place_small_garden	4							
																							object/tangible/terminal/terminal_player_structure_nosnap_mini.iff	4.5	-1	-4.5	WORLD_DELTA	0	
object/building/player/city/garden_naboo_sml_05.iff	object/building/player/construction/construction_player_house_tatooine_small_style_01.iff		1			1	1	5					0	0	1000		1		private_place_small_garden	100	place_small_garden	4							
																							object/tangible/terminal/terminal_player_structure_nosnap_mini.iff	4.5	-1	-4.5	WORLD_DELTA	0	
object/building/player/city/garden_tatooine_lrg_01.iff	object/building/player/construction/construction_player_house_tatooine_small_style_01.iff		1			1	3	6					0	0	1000		1		private_place_large_garden	100	place_large_garden	4							
																							object/tangible/terminal/terminal_player_structure_nosnap_mini.iff	12	-1	-12	WORLD_DELTA	0	
object/building/player/city/garden_tatooine_lrg_02.iff	object/building/player/construction/construction_player_house_tatooine_small_style_01.iff		1			1	3	6					0	0	1000		1		private_place_large_garden	100	place_large_garden	4							
																							object/tangible/terminal/terminal_player_structure_nosnap_mini.iff	12	-1	-12	WORLD_DELTA	0	
object/building/player/city/garden_tatooine_lrg_03.iff	object/building/player/construction/construction_player_house_tatooine_small_style_01.iff		1			1	3	6					0	0	1000		1		private_place_large_garden	100	place_large_garden	4							
																							object/tangible/terminal/terminal_player_structure_nosnap_mini.iff	12	-1	-12	WORLD_DELTA	0	
object/building/player/city/garden_tatooine_lrg_04.iff	object/building/player/construction/construction_player_house_tatooine_small_style_01.iff		1			1	3	6					0	0	1000		1		private_place_large_garden	100	place_large_garden	4							
																							object/tangible/terminal/terminal_player_structure_nosnap_mini.iff	12	-1	-12	WORLD_DELTA	0	
object/building/player/city/garden_tatooine_lrg_05.iff	object/building/player/construction/construction_player_house_tatooine_small_style_01.iff		1			1	3	6					0	0	1000		1		private_place_large_garden	100	place_large_garden	4							
																							object/tangible/terminal/terminal_player_structure_nosnap_mini.iff	12	-1	-12	WORLD_DELTA	0	
object/building/player/city/garden_tatooine_med_01.iff	object/building/player/construction/construction_player_house_tatooine_small_style_01.iff		1			1	2	3					0	0	1000		1		private_place_medium_garden	100	place_medium_garden	4							
																							object/tangible/terminal/terminal_player_structure_nosnap_mini.iff	8	-1	-8	WORLD_DELTA	0	
object/building/player/city/garden_tatooine_med_02.iff	object/building/player/construction/construction_player_house_tatooine_small_style_01.iff		1			1	2	3					0	0	1000		1		private_place_medium_garden	100	place_medium_garden	4							
																							object/tangible/terminal/terminal_player_structure_nosnap_mini.iff	8	-1	-8	WORLD_DELTA	0	
object/building/player/city/garden_tatooine_med_03.iff	object/building/player/construction/construction_player_house_tatooine_small_style_01.iff		1			1	2	3					0	0	1000		1		private_place_medium_garden	100	place_medium_garden	4							
																							object/tangible/terminal/terminal_player_structure_nosnap_mini.iff	8	-1	-8	WORLD_DELTA	0	
object/building/player/city/garden_tatooine_med_04.iff	object/building/player/construction/construction_player_house_tatooine_small_style_01.iff		1			1	2	3					0	0	1000		1		private_place_medium_garden	100	place_medium_garden	4							
																							object/tangible/terminal/terminal_player_structure_nosnap_mini.iff	8	-1	-8	WORLD_DELTA	0	
object/building/player/city/garden_tatooine_med_05.iff	object/building/player/construction/construction_player_house_tatooine_small_style_01.iff		1			1	2	3					0	0	1000		1		private_place_medium_garden	100	place_medium_garden	4							
																							object/tangible/terminal/terminal_player_structure_nosnap_mini.iff	8	-1	-8	WORLD_DELTA	0	
object/building/player/city/garden_tatooine_sml_01.iff	object/building/player/construction/construction_player_house_tatooine_small_style_01.iff		1			1	1	5					0	0	1000		1		private_place_small_garden	100	place_small_garden	4							
																							object/tangible/terminal/terminal_player_structure_nosnap_mini.iff	4.5	-1	-4.5	WORLD_DELTA	0	
object/building/player/city/garden_tatooine_sml_02.iff	object/building/player/construction/construction_player_house_tatooine_small_style_01.iff		1			1	1	5					0	0	1000		1		private_place_small_garden	100	place_small_garden	4							
																							object/tangible/terminal/terminal_player_structure_nosnap_mini.iff	4.5	-1	-4.5	WORLD_DELTA	0	
object/building/player/city/garden_tatooine_sml_03.iff	object/building/player/construction/construction_player_house_tatooine_small_style_01.iff		1			1	1	5					0	0	1000		1		private_place_small_garden	100	place_small_garden	4							
																							object/tangible/terminal/terminal_player_structure_nosnap_mini.iff	4.5	-1	-4.5	WORLD_DELTA	0	
object/building/player/city/garden_tatooine_sml_04.iff	object/building/player/construction/construction_player_house_tatooine_small_style_01.iff		1			1	1	5					0	0	1000		1		private_place_small_garden	100	place_small_garden	4							
																							object/tangible/terminal/terminal_player_structure_nosnap_mini.iff	4.5	-1	-4.5	WORLD_DELTA	0	
object/building/player/city/garden_tatooine_sml_05.iff	object/building/player/construction/construction_player_house_tatooine_small_style_01.iff		1			1	1	5					0	0	1000		1		private_place_small_garden	100	place_small_garden	4							
																							object/tangible/terminal/terminal_player_structure_nosnap_mini.iff	4.5	-1	-4.5	WORLD_DELTA	0	
object/building/player/city/garden_dantooine_lrg_01.iff	object/building/player/construction/construction_player_house_tatooine_small_style_01.iff		1			1	3	6					0	0	1000		1		private_place_exotic_garden	100	place_exotic_garden	4							
																							object/tangible/terminal/terminal_player_structure_nosnap_mini.iff	12	-1	-12	WORLD_DELTA	0	
object/building/player/city/garden_dantooine_med_01.iff	object/building/player/construction/construction_player_house_tatooine_small_style_01.iff		1			1	2	3					0	0	1000		1		private_place_exotic_garden	100	place_exotic_garden	4							
																							object/tangible/terminal/terminal_player_structure_nosnap_mini.iff	8	-1	-8	WORLD_DELTA	0	
object/building/player/city/garden_dantooine_sml_01.iff	object/building/player/construction/construction_player_house_tatooine_small_style_01.iff		1			1	1	5					0	0	1000		1		private_place_exotic_garden	100	place_exotic_garden	4							
																							object/tangible/terminal/terminal_player_structure_nosnap_mini.iff	4.5	-1	-4.5	WORLD_DELTA	0	
object/building/player/city/garden_dathomir_lrg_01.iff	object/building/player/construction/construction_player_house_tatooine_small_style_01.iff		1			1	3	6					0	0	1000		1		private_place_exotic_garden	100	place_exotic_garden	4							
																							object/tangible/terminal/terminal_player_structure_nosnap_mini.iff	12	-1	-12	WORLD_DELTA	0	
object/building/player/city/garden_dathomir_med_01.iff	object/building/player/construction/construction_player_house_tatooine_small_style_01.iff		1			1	2	3					0	0	1000		1		private_place_exotic_garden	100	place_exotic_garden	4							
																							object/tangible/terminal/terminal_player_structure_nosnap_mini.iff	8	-1	-8	WORLD_DELTA	0	
object/building/player/city/garden_dathomir_sml_01.iff	object/building/player/construction/construction_player_house_tatooine_small_style_01.iff		1			1	1	5					0	0	1000		1		private_place_exotic_garden	100	place_exotic_garden	4							
																							object/tangible/terminal/terminal_player_structure_nosnap_mini.iff	4.5	-1	-4.5	WORLD_DELTA	0	
object/building/player/city/garden_endor_lrg_01.iff	object/building/player/construction/construction_player_house_tatooine_small_style_01.iff		1			1	3	6					0	0	1000		1		private_place_exotic_garden	100	place_exotic_garden	4							
																							object/tangible/terminal/terminal_player_structure_nosnap_mini.iff	12	-1	-12	WORLD_DELTA	0	
object/building/player/city/garden_endor_med_01.iff	object/building/player/construction/construction_player_house_tatooine_small_style_01.iff		1			1	2	3					0	0	1000		1		private_place_exotic_garden	100	place_exotic_garden	4							
																							object/tangible/terminal/terminal_player_structure_nosnap_mini.iff	8	-1	-8	WORLD_DELTA	0	
object/building/player/city/garden_endor_sml_01.iff	object/building/player/construction/construction_player_house_tatooine_small_style_01.iff		1			1	1	5					0	0	1000		1		private_place_exotic_garden	100	place_exotic_garden	4							
																							object/tangible/terminal/terminal_player_structure_nosnap_mini.iff	4.5	-1	-4.5	WORLD_DELTA	0	
object/building/player/player_garage_tatooine_style_01.iff	object/building/player/construction/construction_player_house_tatooine_small_style_01.iff		1			1	2	3			1		0	0	1000				private_place_garage	100	place_garage	4							
																							object/tangible/terminal/terminal_player_structure_nosnap_mini.iff	-3	-1	-3	WORLD_DELTA	0	
object/building/player/player_garage_naboo_style_01.iff	object/building/player/construction/construction_player_house_tatooine_small_style_01.iff		1			1	2	3			1		0	0	1000				private_place_garage	100	place_garage	4							
																							object/tangible/terminal/terminal_player_structure_nosnap_mini.iff	-3	-1	-3	WORLD_DELTA	0	
object/building/player/player_garage_corellia_style_01.iff	object/building/player/construction/construction_player_house_tatooine_small_style_01.iff		1			1	2	3			1		0	0	1000				private_place_garage	100	place_garage	4							
																							object/tangible/terminal/terminal_player_structure_nosnap_mini.iff	-3	-1	-3	WORLD_DELTA	0	
object/building/faction_perk/hq/hq_s01_rebel_pvp.iff	object/building/player/construction/construction_player_house_tatooine_large_style_01.iff	object/building/faction_perk/hq/hq_s01_fp.iff		4	8							0	0	200	100000		1					4							
																							object/tangible/terminal/terminal_hq_rebel.iff	0	0	-6	mainhall	0	
object/building/faction_perk/hq/hq_s01_imp_pvp.iff	object/building/player/construction/construction_player_house_tatooine_large_style_01.iff	object/building/faction_perk/hq/hq_s01_fp.iff		4	8							0	0	200	100000		1					4							
																							object/tangible/terminal/terminal_hq_imperial.iff	0	0	-6	mainhall	0	
object/building/faction_perk/hq/hq_s02_rebel_pvp.iff	object/building/player/construction/construction_player_house_tatooine_large_style_01.iff	object/building/faction_perk/hq/hq_s02_fp.iff		4	8							0	0	200	100000		1					4							
																							object/tangible/terminal/terminal_hq_rebel.iff	0	0.25	1.86	hall1	0	
object/building/faction_perk/hq/hq_s02_imp_pvp.iff	object/building/player/construction/construction_player_house_tatooine_large_style_01.iff	object/building/faction_perk/hq/hq_s02_fp.iff		4	8							0	0	200	100000		1					4							
																							object/tangible/terminal/terminal_hq_imperial.iff	0	0.25	1.86	hall1	0	
object/building/faction_perk/hq/hq_s03_rebel_pvp.iff	object/building/player/construction/construction_player_house_tatooine_large_style_01.iff	object/building/faction_perk/hq/hq_s03_fp.iff		4	8							0	0	200	100000		1					4							
																							object/tangible/terminal/terminal_hq_rebel.iff	0	0.25	1.86	hall1	0	
object/building/faction_perk/hq/hq_s03_imp_pvp.iff	object/building/player/construction/construction_player_house_tatooine_large_style_01.iff	object/building/faction_perk/hq/hq_s03_fp.iff		4	8							0	0	200	100000		1					4							
																							object/tangible/terminal/terminal_hq_imperial.iff	0	0.25	1.86	hall1	0	
object/building/faction_perk/hq/hq_s04_rebel_pvp.iff	object/building/player/construction/construction_player_house_tatooine_large_style_01.iff	object/building/faction_perk/hq/hq_s04_fp.iff		4	8							0	0	200	100000		1					4							
																							object/tangible/terminal/terminal_hq_rebel.iff	0	0.25	1.86	hall1	0	
object/building/faction_perk/hq/hq_s04_imp_pvp.iff	object/building/player/construction/construction_player_house_tatooine_large_style_01.iff	object/building/faction_perk/hq/hq_s04_fp.iff		4	8							0	0	200	100000		1					4							
																							object/tangible/terminal/terminal_hq_imperial.iff	0	0.25	1.86	hall1	0	
object/building/faction_perk/hq/hq_s05_rebel_pvp.iff	object/building/player/construction/construction_player_house_tatooine_large_style_01.iff	object/building/faction_perk/hq/hq_s05_fp.iff		7	32							0	0	200	100000		1					4							
																							object/tangible/terminal/terminal_hq_rebel.iff	0	1	12.5	mainhall	180	
object/building/faction_perk/hq/hq_s05_imp_pvp.iff	object/building/player/construction/construction_player_house_tatooine_large_style_01.iff	object/building/faction_perk/hq/hq_s05_fp.iff		7	32							0	0	200	100000		1					4							
																							object/tangible/terminal/terminal_hq_imperial.iff	0	1	12.5	mainhall	180	
object/building/player/player_house_mustafar_lg.iff	object/building/player/construction/construction_player_house_tatooine_large_style_01.iff			-1	8								13	5	7200	0	1					4							
																							object/tangible/terminal/terminal_player_structure.iff	-4.5	0.46	6.33	entrance	90	
																							object/tangible/terminal/terminal_elevator_up.iff	-1.19	-33	1.61	elevator	160	
																							object/tangible/terminal/terminal_elevator_down.iff	1.18	-26	1.65	elevator	-166	
																							object/tangible/terminal/terminal_elevator_down.iff	1.18	0.47	1.65	elevator	-166	
																							object/tangible/terminal/terminal_elevator_up.iff	-1.19	-26	1.61	elevator	160	
object/building/player/city/garden_imperial_01.iff	object/building/player/construction/construction_player_house_tatooine_small_style_01.iff		1			1	1	5					0	0	1000		1		private_place_small_garden	100	place_small_garden	4							
																							object/tangible/terminal/terminal_player_structure_nosnap_mini.iff	1.5	-0.9	-3.5	WORLD_DELTA	0	
object/building/player/city/garden_rebel_01.iff	object/building/player/construction/construction_player_house_tatooine_small_style_01.iff		1			1	1	5					0	0	1000		1		private_place_small_garden	100	place_small_garden	4							
																							object/tangible/terminal/terminal_player_structure_nosnap_mini.iff	2.85	-0.9	-4	WORLD_DELTA	0	
object/building/player/player_house_tatooine_small_window_style_01.iff	object/building/player/construction/construction_player_house_tatooine_small_style_01.iff			0									4	3	4320	800	1					4							
																							object/tangible/terminal/terminal_player_structure.iff	3.79	1.06	6.02	foyer	180	
object/building/player/player_house_naboo_small_window_style_01.iff	object/building/player/construction/construction_player_house_tatooine_small_style_01.iff			-1									4	3	4320	800	1					4							
																							object/tangible/terminal/terminal_player_structure.iff	3.1	0.7	5.31	foyer	-90	
object/building/player/player_house_generic_small_windowed.iff	object/building/player/construction/construction_player_house_tatooine_small_style_01.iff			0									4	3	4320	800	1					4							
																							object/tangible/terminal/terminal_player_structure.iff	-5	0.74	-1.81	entry	-90	
object/building/player/player_house_generic_medium_windowed.iff	object/building/player/construction/construction_player_house_tatooine_medium_style_01.iff			-1									9	4	5760	1700	1					4							
																							object/tangible/terminal/terminal_player_structure.iff	5	0.62	6.4	public	-180	
object/building/player/player_house_generic_small_window_style_03.iff	object/building/player/construction/construction_player_house_tatooine_small_style_01.iff			0									4	3	4320	800	1					4							
																							object/tangible/terminal/terminal_player_structure.iff	-1.8	3	4.3	entry	-180	
object/building/player/player_house_generic_medium_windowed_s02.iff	object/building/player/construction/construction_player_house_tatooine_medium_style_01.iff			-1									9	4	5760	1700	1					4							
																							object/tangible/terminal/terminal_player_structure.iff	5	-2	6	entryway	-180	
object/building/player/player_house_generic_large_window_s01.iff	object/building/player/construction/construction_player_house_tatooine_large_style_01.iff			1									13	5	7200	2500	1					4							
																							object/tangible/terminal/terminal_player_structure.iff	-6.22	4.71	-3.85	hallway	180	Z = FORWARD/BACK
object/building/player/player_house_generic_large_window_s02.iff	object/building/player/construction/construction_player_house_tatooine_large_style_01.iff			1									13	5	7200	2500	1					4							Y = UP/DOWN
																							object/tangible/terminal/terminal_player_structure.iff	8	0	-8.5	entry	0	X = right/left
object/building/player/player_house_hangar.iff	object/building/player/construction/construction_player_house_tatooine_large_style_01.iff			5									13	5	7200	0	1					4							Y = UP/DOWN
																							object/tangible/terminal/terminal_player_structure.iff	8.9	0	-6.5	entry	-90	X = right/left
																							object/tangible/terminal/terminal_player_hangar_structure.iff	8.9	0	-12.6	entry	-90	
object/building/player/player_house_atat.iff	object/building/player/construction/construction_player_house_tatooine_large_style_01.iff			9									13	5	7200	2500	1					4							
																							object/tangible/terminal/terminal_player_structure.iff	3.8	1.06	10.5	body	180	
object/building/player/player_house_tcg_emperors_spire.iff	object/building/player/construction/construction_player_tcg_emperors_spire.iff			8	32								4	3	4320	800	1					4							
																							object/tangible/terminal/terminal_player_structure_nosnap.iff	-2.6	25.6	0	tower	-91	
																							object/tangible/terminal/terminal_elevator_up.iff	-0.76	1.69	-1.1	elevator	0	
																							object/tangible/terminal/terminal_elevator_down.iff	0.74	26.7	-1.1	elevator	0	
object/building/player/player_house_tcg_rebel_spire.iff	object/building/player/construction/construction_player_tcg_rebel_spire.iff			8	32								4	3	4320	800	1					4							
																							object/tangible/terminal/terminal_player_structure_nosnap.iff	-1.24	25.4	-1.59	tower	180	
																							object/tangible/terminal/terminal_elevator_up.iff	-0.75	1.59	-1.1	elevator	0	
																							object/tangible/terminal/terminal_elevator_down.iff	0.74	25.1	-1.1	elevator	0	
object/building/player/player_house_sandcrawler.iff	object/building/player/construction/construction_player_house_tatooine_large_style_01.iff			9									13	5	7200	2500	1					4							
																							object/tangible/terminal/terminal_player_structure.iff	-4.46	8.81	-13.52	foyer	90	
object/building/player/player_pgc_merchant_tent_s01.iff	object/building/player/construction/construction_player_house_tatooine_small_style_01.iff			0									3	3	4320	600	1					4							
																							object/tangible/terminal/terminal_player_structure.iff	-0.15	0.27	-2.76	r1	0	
object/building/player/player_house_tcg_commando_bunker.iff	object/building/player/construction/construction_player_house_tatooine_large_style_01.iff			0	8								13	5	7200	0	1					4							
																							object/tangible/terminal/terminal_player_structure.iff	3.2	0.4	3.16	entry	180	
object/building/player/player_house_tcg_vehicle_garage.iff	object/building/player/construction/construction_player_house_tatooine_large_style_01.iff			6	8								13	5	7200	0	1					4							
																							object/tangible/terminal/terminal_player_structure.iff	14.56	0.53	12.79	entry	180	
																							object/tangible/terminal/terminal_player_vehicle_garage.iff	-1.1	0.84	-9.95	entry	0	
object/building/player/player_house_tcg_vip_bunker.iff	object/building/player/construction/construction_player_house_tatooine_large_style_01.iff			0	8								13	5	7200	0	1					4							
																							object/tangible/terminal/terminal_player_structure.iff	-4.5	0.46	6.33	entrance	90	
																													
																													
object/building/player/player_house_tcg_8_bespin_house.iff	object/building/player/construction/construction_player_house_tcg_8_bespin_house.iff			10	32								13	5	7200	0	1												
																							object/tangible/terminal/terminal_player_structure.iff	2.2	88.9	-5.9	entry	156	
																							object/tangible/terminal/terminal_elevator_up.iff	0.75	1	2	elevator	-146	
																							object/tangible/terminal/terminal_elevator_down.iff	0.75	90	2	elevator	-146	
object/building/player/player_house_tcg_8_yoda_house.iff	object/building/player/construction/construction_player_house_tcg_8_yoda_house.iff			4	32								13	3	4320	800	1					4							
																							object/tangible/terminal/terminal_player_structure_nosnap.iff	8.8	1.1	1.73	entry	-91	
object/building/player/player_house_yt1300.iff	object/building/player/construction/construction_player_house_yt1300.iff			5	32								13	5	7200	0	1												
																							object/tangible/terminal/terminal_player_structure.iff	-3.5	5.2	-2.3	storage5	180	
																							object/tangible/terminal/terminal_elevator_up.iff	-1.7	-0.8	0	elevator	-90	
																							object/tangible/terminal/terminal_elevator_down.iff	-1.7	5.4	0	elevator	-90	
object/building/player/player_house_tree_house_01.iff	object/building/player/construction/construction_player_house_tree_house_01.iff			4	32								13	3	4320	800	1					4							
																							object/tangible/terminal/terminal_player_structure_nosnap.iff	8.8	1.1	1.73	entry	-91	
object/building/player/player_house_wod_ns_hut.iff	object/building/player/construction/construction_player_house_wod_ns_hut.iff			0	32								13	3	4320	800	1					4							
																							object/tangible/terminal/terminal_player_structure_nosnap.iff	3.3	0.79	0.61	r1	-91	
object/building/player/player_house_wod_sm_hut.iff	object/building/player/construction/construction_player_house_wod_sm_hut.iff			0	32								13	3	4320	800	1					4							
																							object/tangible/terminal/terminal_player_structure_nosnap.iff	3.3	0.79	0.61	r1	-91	
object/building/player/player_house_jabbas_sail_barge.iff	object/building/player/construction/construction_player_house_jabbas_sail_barge.iff			10	32								13	5	7200	0	1												
																							object/tangible/terminal/terminal_player_structure.iff	-2.9	16.5	4.5	interior	0	
																							object/tangible/terminal/terminal_elevator_up.iff	0	-5.4	0	interior	180	
																							object/tangible/terminal/terminal_elevator_down.iff	-1.65	11.5	-2	interior	90	
